{
    "openapi": "3.0.0",
    "info": {
        "title": "Shop API Documentation",
        "description": "API documentation for the Shop-project",
        "contact": {
            "email": "helen.khvan89@gmail.com"
        },
        "version": "1.0.0"
    },
    "paths": {
        "/api/addresses": {
            "get": {
                "tags": [
                    "Addresses"
                ],
                "summary": "Get all addresses",
                "description": "Returns a list of addresses",
                "operationId": "dc6b190d3f07db7ed032fa181dc45150",
                "responses": {
                    "200": {
                        "description": "List of addresses",
                        "content": {
                            "application/json": {
                                "schema": {
                                    "type": "array",
                                    "items": {
                                        "$ref": "#/components/schemas/Address"
                                    }
                                }
                            }
                        }
                    }
                }
            },
            "post": {
                "tags": [
                    "Addresses"
                ],
                "summary": "Create a new address",
                "description": "Stores a new address",
                "operationId": "6344fc023028e43a5490f1c6372bd391",
                "requestBody": {
                    "required": true
                },
                "responses": {
                    "201": {
                        "description": "Address created successfully",
                        "content": {
                            "application/json": {
                                "schema": {
                                    "$ref": "#/components/schemas/Address"
                                }
                            }
                        }
                    }
                }
            }
        },
        "/api/addresses/{id}": {
            "get": {
                "tags": [
                    "Addresses"
                ],
                "summary": "Get address by ID",
                "description": "Returns a single address",
                "operationId": "2a46bc21bf18060f0ec3a4fff2debe57",
                "parameters": [
                    {
                        "name": "id",
                        "in": "path",
                        "description": "Address ID",
                        "required": true,
                        "schema": {
                            "type": "integer"
                        }
                    }
                ],
                "responses": {
                    "200": {
                        "description": "Address details",
                        "content": {
                            "application/json": {
                                "schema": {
                                    "$ref": "#/components/schemas/Address"
                                }
                            }
                        }
                    },
                    "404": {
                        "description": "Address not found"
                    }
                }
            },
            "put": {
                "tags": [
                    "Addresses"
                ],
                "summary": "Update an address",
                "description": "Updates an existing address",
                "operationId": "b4967e4140f305290dbde0982a3fc7d0",
                "parameters": [
                    {
                        "name": "id",
                        "in": "path",
                        "description": "Address ID",
                        "required": true,
                        "schema": {
                            "type": "integer"
                        }
                    }
                ],
                "requestBody": {
                    "required": true
                },
                "responses": {
                    "200": {
                        "description": "Address updated successfully",
                        "content": {
                            "application/json": {
                                "schema": {
                                    "$ref": "#/components/schemas/Address"
                                }
                            }
                        }
                    },
                    "404": {
                        "description": "Address not found"
                    }
                }
            },
            "delete": {
                "tags": [
                    "Addresses"
                ],
                "summary": "Delete an address",
                "description": "Deletes an address by ID",
                "operationId": "eedadf79fef97e5ee1af0b11c8856d8b",
                "parameters": [
                    {
                        "name": "id",
                        "in": "path",
                        "description": "Address ID",
                        "required": true,
                        "schema": {
                            "type": "integer"
                        }
                    }
                ],
                "responses": {
                    "204": {
                        "description": "Address deleted successfully"
                    },
                    "404": {
                        "description": "Address not found"
                    }
                }
            }
        },
        "/api/addresses/{id}/restore": {
            "post": {
                "tags": [
                    "Addresses"
                ],
                "summary": "Restore a deleted address",
                "description": "Restores a previously deleted address",
                "operationId": "4a69946c0e1a51e05717a8b6e5529293",
                "parameters": [
                    {
                        "name": "id",
                        "in": "path",
                        "description": "Address ID",
                        "required": true,
                        "schema": {
                            "type": "integer"
                        }
                    }
                ],
                "responses": {
                    "200": {
                        "description": "Address restored successfully",
                        "content": {
                            "application/json": {
                                "schema": {
                                    "$ref": "#/components/schemas/Address"
                                }
                            }
                        }
                    },
                    "404": {
                        "description": "Address not found"
                    }
                }
            }
        },
        "/api/login": {
            "post": {
                "tags": [
                    "Auth"
                ],
                "summary": "Login a user",
                "operationId": "222b2625838e3c57e017987f73598fda",
                "requestBody": {
                    "required": true,
                    "content": {
                        "application/json": {
                            "schema": {
                                "required": [
                                    "email",
                                    "password"
                                ],
                                "properties": {
                                    "email": {
                                        "type": "string",
                                        "format": "email",
                                        "example": "user@example.com"
                                    },
                                    "password": {
                                        "type": "string",
                                        "format": "password",
                                        "example": "Password123"
                                    },
                                    "remember": {
                                        "type": "boolean",
                                        "example": false
                                    }
                                },
                                "type": "object"
                            }
                        }
                    }
                },
                "responses": {
                    "200": {
                        "description": "User successfully logged in",
                        "content": {
                            "application/json": {
                                "schema": {
                                    "properties": {
                                        "access_token": {
                                            "type": "string",
                                            "example": "1|abc123..."
                                        }
                                    },
                                    "type": "object"
                                }
                            }
                        }
                    },
                    "422": {
                        "description": "Invalid credentials",
                        "content": {
                            "application/json": {
                                "schema": {
                                    "properties": {
                                        "message": {
                                            "type": "string",
                                            "example": "The provided credentials are incorrect."
                                        }
                                    },
                                    "type": "object"
                                }
                            }
                        }
                    }
                }
            }
        },
        "/api/register": {
            "post": {
                "tags": [
                    "Auth"
                ],
                "summary": "Register a new user",
                "operationId": "8e4e3cb7b46126f4696379d3c7eeb4ad",
                "requestBody": {
                    "required": true,
                    "content": {
                        "application/json": {
                            "schema": {
                                "required": [
                                    "name",
                                    "email",
                                    "password"
                                ],
                                "properties": {
                                    "name": {
                                        "type": "string",
                                        "example": "John Doe"
                                    },
                                    "email": {
                                        "type": "string",
                                        "format": "email",
                                        "example": "user@example.com"
                                    },
                                    "password": {
                                        "type": "string",
                                        "format": "password",
                                        "example": "Password123"
                                    },
                                    "password_confirmation": {
                                        "type": "string",
                                        "format": "password",
                                        "example": "Password123"
                                    }
                                },
                                "type": "object"
                            }
                        }
                    }
                },
                "responses": {
                    "201": {
                        "description": "User successfully registered",
                        "content": {
                            "application/json": {
                                "schema": {
                                    "properties": {
                                        "access_token": {
                                            "type": "string",
                                            "example": "1|abc123..."
                                        }
                                    },
                                    "type": "object"
                                }
                            }
                        }
                    },
                    "422": {
                        "description": "Validation errors",
                        "content": {
                            "application/json": {
                                "schema": {
                                    "properties": {
                                        "message": {
                                            "type": "string",
                                            "example": "The given data was invalid."
                                        },
                                        "errors": {
                                            "type": "object"
                                        }
                                    },
                                    "type": "object"
                                }
                            }
                        }
                    }
                }
            }
        },
        "/api/logout": {
            "post": {
                "tags": [
                    "Auth"
                ],
                "summary": "Logout the authenticated user",
                "operationId": "ad65cbbd4e9f201619eae184a5961a98",
                "responses": {
                    "200": {
                        "description": "User successfully logged out"
                    }
                }
            }
        },
        "/api/carts/{id}": {
            "get": {
                "tags": [
                    "Carts"
                ],
                "summary": "Get a cart by ID",
                "description": "Returns a single cart",
                "operationId": "77112715122d4069df94b76b8cf0bdfb",
                "parameters": [
                    {
                        "name": "id",
                        "in": "path",
                        "description": "Cart ID",
                        "required": true,
                        "schema": {
                            "type": "integer"
                        }
                    }
                ],
                "responses": {
                    "200": {
                        "description": "Cart details",
                        "content": {
                            "application/json": {
                                "schema": {
                                    "$ref": "#/components/schemas/Cart"
                                }
                            }
                        }
                    },
                    "404": {
                        "description": "Cart not found"
                    }
                }
            }
        },
        "/api/carts/{cart}/products/{product}": {
            "post": {
                "tags": [
                    "Carts"
                ],
                "summary": "Add a product to the cart",
                "description": "Adds a product to the cart",
                "operationId": "391d54a71de1bc98db82c59ea0db5c69",
                "parameters": [
                    {
                        "name": "cart",
                        "in": "path",
                        "description": "Cart ID",
                        "required": true,
                        "schema": {
                            "type": "integer"
                        }
                    },
                    {
                        "name": "product",
                        "in": "path",
                        "description": "Product ID",
                        "required": true,
                        "schema": {
                            "type": "integer"
                        }
                    }
                ],
                "requestBody": {
                    "required": true,
                    "content": {
                        "application/json": {
                            "schema": {
                                "properties": {
                                    "quantity": {
                                        "type": "integer",
                                        "example": 1
                                    }
                                },
                                "type": "object"
                            }
                        }
                    }
                },
                "responses": {
                    "200": {
                        "description": "Product added to cart",
                        "content": {
                            "application/json": {
                                "schema": {
                                    "$ref": "#/components/schemas/Cart"
                                }
                            }
                        }
                    },
                    "404": {
                        "description": "Cart or Product not found"
                    }
                }
            },
            "delete": {
                "tags": [
                    "Carts"
                ],
                "summary": "Remove a product from the cart",
                "description": "Removes a product from the cart",
                "operationId": "24a23afefc7a80bea11c4ea82ff0310f",
                "parameters": [
                    {
                        "name": "cart",
                        "in": "path",
                        "description": "Cart ID",
                        "required": true,
                        "schema": {
                            "type": "integer"
                        }
                    },
                    {
                        "name": "product",
                        "in": "path",
                        "description": "Product ID",
                        "required": true,
                        "schema": {
                            "type": "integer"
                        }
                    }
                ],
                "responses": {
                    "200": {
                        "description": "Product removed from cart",
                        "content": {
                            "application/json": {
                                "schema": {
                                    "$ref": "#/components/schemas/Cart"
                                }
                            }
                        }
                    },
                    "404": {
                        "description": "Cart or Product not found"
                    }
                }
            },
            "patch": {
                "tags": [
                    "Carts"
                ],
                "summary": "Update quantity of a product in the cart",
                "description": "Updates the quantity of a product in the cart",
                "operationId": "363aad184f6dd28871708f1899624daf",
                "parameters": [
                    {
                        "name": "cart",
                        "in": "path",
                        "description": "Cart ID",
                        "required": true,
                        "schema": {
                            "type": "integer"
                        }
                    },
                    {
                        "name": "product",
                        "in": "path",
                        "description": "Product ID",
                        "required": true,
                        "schema": {
                            "type": "integer"
                        }
                    }
                ],
                "requestBody": {
                    "required": true,
                    "content": {
                        "application/json": {
                            "schema": {
                                "properties": {
                                    "quantity": {
                                        "type": "integer",
                                        "example": 2
                                    }
                                },
                                "type": "object"
                            }
                        }
                    }
                },
                "responses": {
                    "200": {
                        "description": "Product quantity updated",
                        "content": {
                            "application/json": {
                                "schema": {
                                    "$ref": "#/components/schemas/Cart"
                                }
                            }
                        }
                    },
                    "404": {
                        "description": "Cart or Product not found"
                    }
                }
            }
        },
        "/api/carts/{cart}/pay": {
            "post": {
                "tags": [
                    "Carts"
                ],
                "summary": "Pay for the cart",
                "description": "Handles the payment process for the cart",
                "operationId": "eb6254adfb52a21a924c02268af49c69",
                "parameters": [
                    {
                        "name": "cart",
                        "in": "path",
                        "description": "Cart ID",
                        "required": true,
                        "schema": {
                            "type": "integer"
                        }
                    }
                ],
                "responses": {
                    "200": {
                        "description": "Payment processed",
                        "content": {
                            "application/json": {
                                "schema": {
                                    "$ref": "#/components/schemas/Cart"
                                }
                            }
                        }
                    },
                    "404": {
                        "description": "Cart not found"
                    }
                }
            }
        },
        "/api/categories": {
            "get": {
                "tags": [
                    "Categories"
                ],
                "summary": "Get list of categories",
                "description": "Returns a list of categories",
                "operationId": "ac9c4d978ea4e5b72915ca9728e5b8b1",
                "responses": {
                    "200": {
                        "description": "successful operation",
                        "content": {
                            "application/json": {
                                "schema": {
                                    "type": "array",
                                    "items": {
                                        "$ref": "#/components/schemas/Category"
                                    }
                                }
                            }
                        }
                    },
                    "401": {
                        "description": "Unauthorized"
                    },
                    "400": {
                        "description": "Bad Request"
                    }
                }
            },
            "post": {
                "tags": [
                    "Categories"
                ],
                "summary": "Create a new category",
                "description": "Creates a new category",
                "operationId": "cca49a87d9b0ebb9a98ad7c154b71737",
                "requestBody": {
                    "required": true
                },
                "responses": {
                    "201": {
                        "description": "Category created successfully",
                        "content": {
                            "application/json": {
                                "schema": {
                                    "$ref": "#/components/schemas/Category"
                                }
                            }
                        }
                    },
                    "400": {
                        "description": "Bad Request"
                    }
                }
            }
        },
        "/api/categories/{id}": {
            "get": {
                "tags": [
                    "Categories"
                ],
                "summary": "Get a category by ID",
                "description": "Returns a single category",
                "operationId": "09767bb2e47dde77dd1e2591428b0ae1",
                "parameters": [
                    {
                        "name": "id",
                        "in": "path",
                        "description": "Category ID",
                        "required": true,
                        "schema": {
                            "type": "string"
                        }
                    }
                ],
                "responses": {
                    "200": {
                        "description": "Category details",
                        "content": {
                            "application/json": {
                                "schema": {
                                    "$ref": "#/components/schemas/Category"
                                }
                            }
                        }
                    },
                    "404": {
                        "description": "Category not found"
                    }
                }
            },
            "put": {
                "tags": [
                    "Categories"
                ],
                "summary": "Update a category",
                "description": "Updates a category",
                "operationId": "7dcf71887e585de7f881e9eb98d86126",
                "parameters": [
                    {
                        "name": "id",
                        "in": "path",
                        "description": "Category ID",
                        "required": true,
                        "schema": {
                            "type": "string"
                        }
                    }
                ],
                "requestBody": {
                    "required": true
                },
                "responses": {
                    "200": {
                        "description": "Category updated successfully",
                        "content": {
                            "application/json": {
                                "schema": {
                                    "$ref": "#/components/schemas/Category"
                                }
                            }
                        }
                    },
                    "400": {
                        "description": "Bad Request"
                    },
                    "404": {
                        "description": "Category not found"
                    }
                }
            },
            "delete": {
                "tags": [
                    "Categories"
                ],
                "summary": "Delete a category",
                "description": "Deletes a category",
                "operationId": "9b61b65823f4a21f182506b34ddf805c",
                "parameters": [
                    {
                        "name": "id",
                        "in": "path",
                        "description": "Category ID",
                        "required": true,
                        "schema": {
                            "type": "string"
                        }
                    }
                ],
                "responses": {
                    "204": {
                        "description": "Category deleted successfully"
                    },
                    "404": {
                        "description": "Category not found"
                    }
                }
            }
        },
        "/api/orders": {
            "get": {
                "tags": [
                    "Order"
                ],
                "summary": "Get All Orders",
                "description": "Retrieve a list of all orders.",
                "operationId": "955bb77a45ae173a485fadb8befed93f",
                "responses": {
                    "200": {
                        "description": "List of orders",
                        "content": {
                            "application/json": {
                                "schema": {
                                    "type": "array",
                                    "items": {
                                        "$ref": "#/components/schemas/Order"
                                    }
                                }
                            }
                        }
                    },
                    "401": {
                        "description": "Unauthorized",
                        "content": {
                            "application/json": {
                                "schema": {
                                    "properties": {
                                        "error": {
                                            "type": "string",
                                            "example": "Unauthorized"
                                        }
                                    },
                                    "type": "object"
                                }
                            }
                        }
                    }
                }
            },
            "post": {
                "tags": [
                    "Order"
                ],
                "summary": "Create an Order",
                "description": "Create a new order with the provided data.",
                "operationId": "2123ba58dadb22bd6f2c8081af562230",
                "requestBody": {
                    "required": true,
                    "content": {
                        "application/json": {
                            "schema": {
                                "required": [
                                    "user_id",
                                    "product_id",
                                    "quantity"
                                ],
                                "properties": {
                                    "user_id": {
                                        "type": "integer",
                                        "example": 1
                                    },
                                    "product_id": {
                                        "type": "integer",
                                        "example": 1
                                    },
                                    "quantity": {
                                        "type": "integer",
                                        "example": 2
                                    }
                                },
                                "type": "object"
                            }
                        }
                    }
                },
                "responses": {
                    "201": {
                        "description": "Order created successfully",
                        "content": {
                            "application/json": {
                                "schema": {
                                    "properties": {
                                        "order_id": {
                                            "type": "integer",
                                            "example": 1
                                        }
                                    },
                                    "type": "object"
                                }
                            }
                        }
                    },
                    "400": {
                        "description": "Invalid input",
                        "content": {
                            "application/json": {
                                "schema": {
                                    "properties": {
                                        "error": {
                                            "type": "string",
                                            "example": "Invalid input data"
                                        }
                                    },
                                    "type": "object"
                                }
                            }
                        }
                    }
                }
            }
        },
        "/api/orders/{id}": {
            "get": {
                "tags": [
                    "Order"
                ],
                "summary": "Get Order Details",
                "description": "Retrieve details of a specific order.",
                "operationId": "88d27387b1e409e075c18609d4a0c300",
                "parameters": [
                    {
                        "name": "id",
                        "in": "path",
                        "required": true,
                        "schema": {
                            "type": "integer"
                        }
                    }
                ],
                "responses": {
                    "200": {
                        "description": "Order details",
                        "content": {
                            "application/json": {
                                "schema": {
                                    "$ref": "#/components/schemas/Order"
                                }
                            }
                        }
                    },
                    "404": {
                        "description": "Order not found",
                        "content": {
                            "application/json": {
                                "schema": {
                                    "properties": {
                                        "error": {
                                            "type": "string",
                                            "example": "Order not found."
                                        }
                                    },
                                    "type": "object"
                                }
                            }
                        }
                    }
                }
            },
            "put": {
                "tags": [
                    "Order"
                ],
                "summary": "Update an Order",
                "description": "Update the details of a specific order.",
                "operationId": "38a1b85e8294795a1b0dc438a36e319f",
                "parameters": [
                    {
                        "name": "id",
                        "in": "path",
                        "required": true,
                        "schema": {
                            "type": "integer"
                        }
                    }
                ],
                "requestBody": {
                    "required": true,
                    "content": {
                        "application/json": {
                            "schema": {
                                "required": [
                                    "product_id",
                                    "quantity"
                                ],
                                "properties": {
                                    "product_id": {
                                        "type": "integer",
                                        "example": 1
                                    },
                                    "quantity": {
                                        "type": "integer",
                                        "example": 2
                                    }
                                },
                                "type": "object"
                            }
                        }
                    }
                },
                "responses": {
                    "200": {
                        "description": "Order updated successfully",
                        "content": {
                            "application/json": {
                                "schema": {
                                    "properties": {
                                        "message": {
                                            "type": "string",
                                            "example": "Order updated successfully."
                                        }
                                    },
                                    "type": "object"
                                }
                            }
                        }
                    },
                    "400": {
                        "description": "Invalid input or insufficient inventory",
                        "content": {
                            "application/json": {
                                "schema": {
                                    "properties": {
                                        "error": {
                                            "type": "string",
                                            "example": "Invalid input or insufficient inventory."
                                        }
                                    },
                                    "type": "object"
                                }
                            }
                        }
                    }
                }
            },
            "delete": {
                "tags": [
                    "Order"
                ],
                "summary": "Delete an Order",
                "description": "Delete a specific order.",
                "operationId": "bab875a1ed962fb33565ab9b48c0d494",
                "parameters": [
                    {
                        "name": "id",
                        "in": "path",
                        "required": true,
                        "schema": {
                            "type": "integer"
                        }
                    }
                ],
                "responses": {
                    "200": {
                        "description": "Order deleted successfully",
                        "content": {
                            "application/json": {
                                "schema": {
                                    "properties": {
                                        "message": {
                                            "type": "string",
                                            "example": "Order canceled successfully."
                                        }
                                    },
                                    "type": "object"
                                }
                            }
                        }
                    },
                    "404": {
                        "description": "Order not found",
                        "content": {
                            "application/json": {
                                "schema": {
                                    "properties": {
                                        "error": {
                                            "type": "string",
                                            "example": "Order not found."
                                        }
                                    },
                                    "type": "object"
                                }
                            }
                        }
                    }
                }
            }
        },
        "/api/orders/{id}/cancel": {
            "post": {
                "tags": [
                    "Order"
                ],
                "summary": "Cancel an Order",
                "description": "Cancel a specific order.",
                "operationId": "4bff05b82387c6b20976c7b82ae2c9ba",
                "parameters": [
                    {
                        "name": "id",
                        "in": "path",
                        "required": true,
                        "schema": {
                            "type": "integer"
                        }
                    }
                ],
                "responses": {
                    "200": {
                        "description": "Order canceled successfully",
                        "content": {
                            "application/json": {
                                "schema": {
                                    "properties": {
                                        "message": {
                                            "type": "string",
                                            "example": "Order canceled successfully."
                                        }
                                    },
                                    "type": "object"
                                }
                            }
                        }
                    },
                    "400": {
                        "description": "Order cannot be canceled",
                        "content": {
                            "application/json": {
                                "schema": {
                                    "properties": {
                                        "error": {
                                            "type": "string",
                                            "example": "Order cannot be canceled."
                                        }
                                    },
                                    "type": "object"
                                }
                            }
                        }
                    }
                }
            }
        },
        "/api/paybox/process-payment": {
            "post": {
                "tags": [
                    "Payment"
                ],
                "summary": "Process Payment",
                "description": "Handles payment processing for the cart.",
                "operationId": "61a9933186fcea66cd99e31df7795b22",
                "requestBody": {
                    "required": true,
                    "content": {
                        "application/json": {
                            "schema": {
                                "required": [
                                    "cart_id"
                                ],
                                "properties": {
                                    "cart_id": {
                                        "type": "integer",
                                        "example": 1
                                    }
                                },
                                "type": "object"
                            }
                        }
                    }
                },
                "responses": {
                    "200": {
                        "description": "Payment processing initiated",
                        "content": {
                            "application/json": {
                                "schema": {
                                    "properties": {
                                        "redirect_url": {
                                            "type": "string",
                                            "example": "https://paybox.example.com/redirect"
                                        }
                                    },
                                    "type": "object"
                                }
                            }
                        }
                    },
                    "400": {
                        "description": "Invalid input",
                        "content": {
                            "application/json": {
                                "schema": {
                                    "properties": {
                                        "error": {
                                            "type": "string",
                                            "example": "Invalid cart ID or cart is empty."
                                        }
                                    },
                                    "type": "object"
                                }
                            }
                        }
                    }
                }
            }
        },
        "/api/paybox/success": {
            "get": {
                "tags": [
                    "Payment"
                ],
                "summary": "Payment Success",
                "description": "Handles payment success callback from Paybox.",
                "operationId": "d490db4c3d98d315c08e33b037bce3f3",
                "requestBody": {
                    "required": true,
                    "content": {
                        "application/json": {
                            "schema": {
                                "properties": {
                                    "pg_order_id": {
                                        "type": "string",
                                        "example": "ORD123456"
                                    },
                                    "pg_payment_id": {
                                        "type": "string",
                                        "example": "PAY123456"
                                    },
                                    "amount": {
                                        "type": "number",
                                        "format": "float",
                                        "example": 99.99
                                    },
                                    "pg_status": {
                                        "type": "string",
                                        "example": "success"
                                    }
                                },
                                "type": "object"
                            }
                        }
                    }
                },
                "responses": {
                    "200": {
                        "description": "Payment processed successfully",
                        "content": {
                            "application/json": {
                                "schema": {
                                    "properties": {
                                        "message": {
                                            "type": "string",
                                            "example": "Payment processed successfully."
                                        }
                                    },
                                    "type": "object"
                                }
                            }
                        }
                    },
                    "400": {
                        "description": "Error processing payment",
                        "content": {
                            "application/json": {
                                "schema": {
                                    "properties": {
                                        "error": {
                                            "type": "string",
                                            "example": "Error processing payment."
                                        }
                                    },
                                    "type": "object"
                                }
                            }
                        }
                    }
                }
            }
        },
        "/api/paybox/failure": {
            "get": {
                "tags": [
                    "Payment"
                ],
                "summary": "Payment Failure",
                "description": "Handles payment failure callback from Paybox.",
                "operationId": "175059b8dced67d091870204f46044b9",
                "requestBody": {
                    "required": true,
                    "content": {
                        "application/json": {
                            "schema": {
                                "properties": {
                                    "pg_order_id": {
                                        "type": "string",
                                        "example": "ORD123456"
                                    },
                                    "pg_payment_id": {
                                        "type": "string",
                                        "example": "PAY123456"
                                    },
                                    "amount": {
                                        "type": "number",
                                        "format": "float",
                                        "example": 99.99
                                    },
                                    "pg_status": {
                                        "type": "string",
                                        "example": "failure"
                                    }
                                },
                                "type": "object"
                            }
                        }
                    }
                },
                "responses": {
                    "200": {
                        "description": "Payment failure processed",
                        "content": {
                            "application/json": {
                                "schema": {
                                    "properties": {
                                        "message": {
                                            "type": "string",
                                            "example": "Payment failed. Please try again."
                                        }
                                    },
                                    "type": "object"
                                }
                            }
                        }
                    },
                    "400": {
                        "description": "Error processing failure",
                        "content": {
                            "application/json": {
                                "schema": {
                                    "properties": {
                                        "error": {
                                            "type": "string",
                                            "example": "Error processing payment failure."
                                        }
                                    },
                                    "type": "object"
                                }
                            }
                        }
                    }
                }
            }
        },
        "/api/payments": {
            "get": {
                "summary": "Get all payments",
                "operationId": "afcbc19a07bf33c2fcb73b5c438b476c",
                "responses": {
                    "200": {
                        "description": "A list of payments",
                        "content": {
                            "application/json": {
                                "schema": {
                                    "type": "array",
                                    "items": {
                                        "$ref": "#/components/schemas/Payment"
                                    }
                                }
                            }
                        }
                    }
                }
            },
            "post": {
                "tags": [
                    "Payments"
                ],
                "summary": "Store payment",
                "description": "Stores a new payment",
                "operationId": "985b848b4cb6ca6115cf4ea71e314c0c",
                "requestBody": {
                    "required": true
                },
                "responses": {
                    "201": {
                        "description": "Payment created successfully",
                        "content": {
                            "application/json": {
                                "schema": {
                                    "$ref": "#/components/schemas/Payment"
                                }
                            }
                        }
                    },
                    "400": {
                        "description": "Invalid input"
                    },
                    "403": {
                        "description": "Forbidden"
                    }
                }
            }
        },
        "/api/payments/{payment}": {
            "get": {
                "tags": [
                    "Payments"
                ],
                "summary": "Get payment details",
                "description": "Returns details of a specific payment",
                "operationId": "d274043b1b4195c7cc52f657ee6a9d83",
                "parameters": [
                    {
                        "name": "payment",
                        "in": "path",
                        "required": true,
                        "schema": {
                            "type": "integer"
                        }
                    }
                ],
                "responses": {
                    "200": {
                        "description": "Successful operation"
                    },
                    "403": {
                        "description": "Forbidden"
                    },
                    "404": {
                        "description": "Not Found"
                    }
                }
            },
            "put": {
                "tags": [
                    "Payments"
                ],
                "summary": "Update payment",
                "description": "Updates an existing payment",
                "operationId": "c7c4f622057caa8fb2712f71f665d53d",
                "parameters": [
                    {
                        "name": "payment",
                        "in": "path",
                        "required": true,
                        "schema": {
                            "type": "integer"
                        }
                    }
                ],
                "requestBody": {
                    "required": true
                },
                "responses": {
                    "200": {
                        "description": "Payment updated successfully",
                        "content": {
                            "application/json": {
                                "schema": {
                                    "$ref": "#/components/schemas/Payment"
                                }
                            }
                        }
                    },
                    "400": {
                        "description": "Invalid input"
                    },
                    "403": {
                        "description": "Forbidden"
                    }
                }
            },
            "delete": {
                "tags": [
                    "Payments"
                ],
                "summary": "Delete payment",
                "description": "Deletes a payment",
                "operationId": "eaa7109c2008b8438fa06c7679a1e61d",
                "parameters": [
                    {
                        "name": "payment",
                        "in": "path",
                        "required": true,
                        "schema": {
                            "type": "integer"
                        }
                    }
                ],
                "responses": {
                    "204": {
                        "description": "Payment deleted successfully"
                    },
                    "403": {
                        "description": "Forbidden"
                    }
                }
            }
        },
        "/api/products": {
            "get": {
                "tags": [
                    "Products"
                ],
                "summary": "Get list of products",
                "description": "Returns a list of products",
                "operationId": "d97d1c3727cbac49708b85f7d11f7d58",
                "parameters": [
                    {
                        "name": "category_id",
                        "in": "query",
                        "description": "Category ID to filter products",
                        "required": false,
                        "schema": {
                            "type": "integer"
                        }
                    }
                ],
                "responses": {
                    "200": {
                        "description": "successful operation",
                        "content": {
                            "application/json": {
                                "schema": {
                                    "type": "array",
                                    "items": {
                                        "$ref": "#/components/schemas/Product"
                                    }
                                }
                            }
                        }
                    },
                    "401": {
                        "description": "Unauthorized"
                    },
                    "400": {
                        "description": "Bad Request"
                    }
                }
            },
            "post": {
                "tags": [
                    "Products"
                ],
                "summary": "Create a new product",
                "description": "Creates a new product",
                "operationId": "785644b7d7dd38af4b51dafd0fbc1b6d",
                "requestBody": {
                    "required": true
                },
                "responses": {
                    "201": {
                        "description": "Product created successfully",
                        "content": {
                            "application/json": {
                                "schema": {
                                    "$ref": "#/components/schemas/Product"
                                }
                            }
                        }
                    },
                    "400": {
                        "description": "Bad Request"
                    }
                }
            }
        },
        "/api/products/{id}": {
            "get": {
                "tags": [
                    "Products"
                ],
                "summary": "Get a product by ID",
                "description": "Returns a single product",
                "operationId": "c87fb2e4d617e7b36c712cad358acdb8",
                "parameters": [
                    {
                        "name": "id",
                        "in": "path",
                        "description": "Product ID",
                        "required": true,
                        "schema": {
                            "type": "string"
                        }
                    }
                ],
                "responses": {
                    "200": {
                        "description": "Product details",
                        "content": {
                            "application/json": {
                                "schema": {
                                    "$ref": "#/components/schemas/Product"
                                }
                            }
                        }
                    },
                    "404": {
                        "description": "Product not found"
                    }
                }
            },
            "put": {
                "tags": [
                    "Products"
                ],
                "summary": "Update a product",
                "description": "Updates a product",
                "operationId": "416e4959a3919547eb609d87e3db9135",
                "parameters": [
                    {
                        "name": "id",
                        "in": "path",
                        "description": "Product ID",
                        "required": true,
                        "schema": {
                            "type": "string"
                        }
                    }
                ],
                "requestBody": {
                    "required": true
                },
                "responses": {
                    "200": {
                        "description": "Product updated successfully",
                        "content": {
                            "application/json": {
                                "schema": {
                                    "$ref": "#/components/schemas/Product"
                                }
                            }
                        }
                    },
                    "400": {
                        "description": "Bad Request"
                    },
                    "404": {
                        "description": "Product not found"
                    }
                }
            },
            "delete": {
                "tags": [
                    "Products"
                ],
                "summary": "Delete a product",
                "description": "Deletes a product",
                "operationId": "b49ce9f3cb168b233245548fb4ef36d3",
                "parameters": [
                    {
                        "name": "id",
                        "in": "path",
                        "description": "Product ID",
                        "required": true,
                        "schema": {
                            "type": "string"
                        }
                    }
                ],
                "responses": {
                    "204": {
                        "description": "Product deleted successfully"
                    },
                    "404": {
                        "description": "Product not found"
                    }
                }
            }
        },
        "/api/users": {
            "get": {
                "tags": [
                    "Users"
                ],
                "summary": "Get list of users",
                "description": "Returns a list of users",
                "operationId": "566aed8efb436ca506e0ef51a032ecd9",
                "responses": {
                    "200": {
                        "description": "successful operation",
                        "content": {
                            "application/json": {
                                "schema": {
                                    "type": "array",
                                    "items": {
                                        "$ref": "#/components/schemas/User"
                                    }
                                }
                            }
                        }
                    },
                    "401": {
                        "description": "Unauthorized"
                    },
                    "400": {
                        "description": "Bad Request"
                    }
                }
            },
            "post": {
                "tags": [
                    "Users"
                ],
                "summary": "Create a new user",
                "description": "Creates a new user",
                "operationId": "be551c1d694a01c164966f58bfa77013",
                "requestBody": {
                    "required": true
                },
                "responses": {
                    "201": {
                        "description": "User created successfully",
                        "content": {
                            "application/json": {
                                "schema": {
                                    "$ref": "#/components/schemas/User"
                                }
                            }
                        }
                    },
                    "400": {
                        "description": "Bad Request"
                    }
                }
            }
        },
        "/api/users/{id}": {
            "get": {
                "tags": [
                    "Users"
                ],
                "summary": "Get a user by ID",
                "description": "Returns a single user",
                "operationId": "6f51bd5fa2dddcd25e44cfa53dcbd10a",
                "parameters": [
                    {
                        "name": "id",
                        "in": "path",
                        "required": true,
                        "schema": {
                            "type": "string"
                        }
                    }
                ],
                "responses": {
                    "200": {
                        "description": "successful operation",
                        "content": {
                            "application/json": {
                                "schema": {
                                    "$ref": "#/components/schemas/User"
                                }
                            }
                        }
                    },
                    "404": {
                        "description": "User not found"
                    }
                }
            },
            "put": {
                "tags": [
                    "Users"
                ],
                "summary": "Update a user",
                "description": "Updates a user",
                "operationId": "070e37fc9aff78ae73860751bc990ed3",
                "parameters": [
                    {
                        "name": "id",
                        "in": "path",
                        "required": true,
                        "schema": {
                            "type": "string"
                        }
                    }
                ],
                "requestBody": {
                    "required": true
                },
                "responses": {
                    "200": {
                        "description": "User updated successfully",
                        "content": {
                            "application/json": {
                                "schema": {
                                    "$ref": "#/components/schemas/User"
                                }
                            }
                        }
                    },
                    "400": {
                        "description": "Bad Request"
                    },
                    "404": {
                        "description": "User not found"
                    }
                }
            },
            "delete": {
                "tags": [
                    "Users"
                ],
                "summary": "Delete a user",
                "description": "Deletes a user",
                "operationId": "0b4133ed462528a5e648b88ead11e929",
                "parameters": [
                    {
                        "name": "id",
                        "in": "path",
                        "required": true,
                        "schema": {
                            "type": "string"
                        }
                    }
                ],
                "responses": {
                    "204": {
                        "description": "User deleted successfully"
                    },
                    "404": {
                        "description": "User not found"
                    }
                }
            }
        },
        "/api/users/export": {
            "get": {
                "tags": [
                    "Users"
                ],
                "summary": "Export users",
                "description": "Exports a list of users to an Excel file",
                "operationId": "1f40d2291ce60c2af3506e17a8cf0b46",
                "responses": {
                    "200": {
                        "description": "File downloaded successfully",
                        "content": {
                            "application/vnd.openxmlformats-officedocument.spreadsheetml.sheet": {}
                        }
                    }
                }
            }
        }
    },
    "components": {
        "schemas": {
            "Address": {
                "title": "Address",
                "description": "Address model",
                "required": [
                    "user_id",
                    "street",
                    "city",
                    "state",
                    "postal_code",
                    "country"
                ],
                "properties": {
                    "id": {
                        "type": "integer",
                        "example": 1
                    },
                    "user_id": {
                        "type": "integer",
                        "example": 1
                    },
                    "street": {
                        "type": "string",
                        "example": "123 Main St"
                    },
                    "city": {
                        "type": "string",
                        "example": "Springfield"
                    },
                    "state": {
                        "type": "string",
                        "example": "IL"
                    },
                    "postal_code": {
                        "type": "string",
                        "example": "62704"
                    },
                    "country": {
                        "type": "string",
                        "example": "USA"
                    },
                    "building_number": {
                        "type": "string",
                        "example": "A12"
                    },
                    "apartment_number": {
                        "type": "string",
                        "example": "301"
                    },
                    "is_default": {
                        "type": "boolean",
                        "example": true
                    },
                    "user": {
                        "$ref": "#/components/schemas/User"
                    }
                },
                "type": "object"
            },
            "Cart": {
                "title": "Cart",
                "description": "Cart model",
                "required": [
                    "user_id"
                ],
                "properties": {
                    "id": {
                        "type": "integer",
                        "example": 1
                    },
                    "user_id": {
                        "type": "integer",
                        "example": 1
                    },
                    "total_amount": {
                        "type": "number",
                        "format": "float",
                        "example": 150.75
                    },
                    "created_at": {
                        "type": "string",
                        "format": "date-time",
                        "example": "2024-08-07T12:34:56Z"
                    },
                    "updated_at": {
                        "type": "string",
                        "format": "date-time",
                        "example": "2024-08-07T12:34:56Z"
                    },
                    "deleted_at": {
                        "type": "string",
                        "format": "date-time",
                        "example": "2024-08-07T12:34:56Z"
                    }
                },
                "type": "object"
            },
            "Category": {
                "title": "Category",
                "description": "Category model",
                "required": [
                    "name"
                ],
                "properties": {
                    "id": {
                        "type": "integer",
                        "example": 1
                    },
                    "name": {
                        "type": "string",
                        "example": "Electronics"
                    },
                    "description": {
                        "type": "string",
                        "example": "Electronics and gadgets"
                    },
                    "parent_id": {
                        "type": "integer",
                        "example": 0
                    },
                    "slug": {
                        "type": "string",
                        "example": "electronics"
                    }
                },
                "type": "object"
            },
            "Inventory": {
                "title": "Inventory",
                "description": "Inventory model",
                "required": [
                    "product_id",
                    "quantity"
                ],
                "properties": {
                    "id": {
                        "type": "integer",
                        "example": 1
                    },
                    "product_id": {
                        "type": "integer",
                        "example": 101
                    },
                    "quantity": {
                        "type": "integer",
                        "example": 50
                    }
                },
                "type": "object"
            },
            "Order": {
                "title": "Order",
                "description": "Order model",
                "required": [
                    "user_id",
                    "order_number",
                    "total_amount",
                    "currency",
                    "status"
                ],
                "properties": {
                    "id": {
                        "type": "integer",
                        "example": 1
                    },
                    "user_id": {
                        "type": "integer",
                        "example": 1
                    },
                    "order_number": {
                        "type": "string",
                        "example": "ORD123456"
                    },
                    "address_id": {
                        "type": "integer",
                        "example": 2
                    },
                    "total_amount": {
                        "type": "number",
                        "format": "float",
                        "example": 99.99
                    },
                    "currency": {
                        "type": "string",
                        "example": "USD"
                    },
                    "status": {
                        "type": "string",
                        "example": "pending"
                    },
                    "quantity": {
                        "type": "integer",
                        "example": 3
                    }
                },
                "type": "object"
            },
            "Payment": {
                "title": "Payment",
                "description": "Payment model",
                "required": [
                    "order_id",
                    "user_id",
                    "amount",
                    "payment_method",
                    "transaction_id"
                ],
                "properties": {
                    "id": {
                        "type": "integer",
                        "example": 1
                    },
                    "order_id": {
                        "type": "integer",
                        "example": 2
                    },
                    "user_id": {
                        "type": "integer",
                        "example": 3
                    },
                    "cart_id": {
                        "type": "integer",
                        "example": 4
                    },
                    "amount": {
                        "type": "number",
                        "format": "float",
                        "example": 199.99
                    },
                    "payment_method": {
                        "type": "string",
                        "example": "credit_card"
                    },
                    "transaction_id": {
                        "type": "string",
                        "example": "TX123456789"
                    }
                },
                "type": "object"
            },
            "Product": {
                "title": "Product",
                "description": "Product model",
                "required": [
                    "name",
                    "price",
                    "category_id"
                ],
                "properties": {
                    "id": {
                        "type": "integer",
                        "example": 1
                    },
                    "name": {
                        "type": "string",
                        "example": "Example Product"
                    },
                    "description": {
                        "type": "string",
                        "example": "This is a sample product description."
                    },
                    "price": {
                        "type": "number",
                        "format": "float",
                        "example": 29.99
                    },
                    "category_id": {
                        "type": "integer",
                        "example": 2
                    },
                    "image": {
                        "type": "string",
                        "example": "path/to/image.jpg"
                    }
                },
                "type": "object"
            },
            "Shipping": {
                "title": "Shipping",
                "description": "Shipping model",
                "required": [
                    "order_id",
                    "address_id",
                    "user_id",
                    "shipping_fee",
                    "order_total"
                ],
                "properties": {
                    "id": {
                        "type": "integer",
                        "example": 1
                    },
                    "order_id": {
                        "type": "integer",
                        "example": 101
                    },
                    "address_id": {
                        "type": "integer",
                        "example": 5
                    },
                    "user_id": {
                        "type": "integer",
                        "example": 12
                    },
                    "shipping_fee": {
                        "type": "number",
                        "format": "float",
                        "example": 5.99
                    },
                    "order_total": {
                        "type": "number",
                        "format": "float",
                        "example": 105.99
                    },
                    "is_free": {
                        "type": "boolean",
                        "example": false
                    }
                },
                "type": "object"
            },
            "User": {
                "title": "User",
                "description": "User model",
                "required": [
                    "id",
                    "name",
                    "email",
                    "age",
                    "phone",
                    "is_admin"
                ],
                "properties": {
                    "id": {
                        "type": "integer",
                        "example": 1
                    },
                    "name": {
                        "type": "string",
                        "example": "John Doe"
                    },
                    "email": {
                        "type": "string",
                        "example": "john.doe@example.com"
                    },
                    "age": {
                        "type": "integer",
                        "example": 30
                    },
                    "phone": {
                        "type": "string",
                        "example": "+123456789"
                    },
                    "is_admin": {
                        "type": "boolean",
                        "example": true
                    }
                },
                "type": "object"
            }
        }
    },
    "tags": [
        {
            "name": "Addresses",
            "description": "Operations related to addresses"
        },
        {
            "name": "Auth"
        },
        {
            "name": "Carts",
            "description": "Operations related to carts"
        },
        {
            "name": "Categories",
            "description": "Categories"
        },
        {
            "name": "Order",
            "description": "Order"
        },
        {
            "name": "Payment",
            "description": "Payment"
        },
        {
            "name": "Payments",
            "description": "Payments"
        },
        {
            "name": "Products",
            "description": "Products"
        },
        {
            "name": "Users",
            "description": "Users"
        }
    ]
}